[TITLE]


[JUNCTIONS]
;ID              	Elev        	Demand      	Pattern         
 J1              	30          	0           	                	;
 J2              	80          	0           	domestic        	;
 J3              	30          	0           	                	;
 J4              	0           	0           	                	;
 J5              	0           	0           	                	;
 J6              	0           	30          	domestic        	;
 J7              	30          	20          	domestic        	;
 J8              	0           	0           	                	;
 J9              	30          	0           	                	;
 J10             	0           	30          	domestic        	;
 J11             	0           	3           	                	;
 J12             	0           	3           	                	;
 J13             	0           	3           	                	;
 J14             	0           	0           	                	;
 J15             	0           	0           	                	;
 J16             	0           	30          	domestic        	;
 J17             	30          	0           	                	;
 J19             	30          	5           	domestic        	;
 J20             	0           	30          	domestic        	;
 J44             	30          	0           	                	;

[RESERVOIRS]
;ID              	Head        	Pattern         
 Cheddar_TW      	2           	                	;

[TANKS]
;ID              	Elevation   	InitLevel   	MinLevel    	MaxLevel    	Diameter    	MinVol      	VolCurve
 Brean_res       	37.4        	1           	0           	6.2         	5.5         	0           	                	;
 Winscombe_hill  	147.1       	1           	0           	3.51        	9.74        	0           	                	;
 Brent_knoll     	40.74       	2           	0           	4.14        	31.84       	0           	                	;
 East_brent      	40          	1           	0           	2           	11.4        	0           	                	;

[PIPES]
;ID              	Node1           	Node2           	Length      	Diameter    	Roughness   	MinorLoss   	Status
 1               	Brean_res       	J6              	1000        	500         	1           	0           	Open  	;
 2               	J6              	J7              	1000        	500         	1           	0           	Open  	;
 3               	East_brent      	J10             	1000        	500         	1           	0           	Open  	;
 4               	J10             	J11             	1000        	500         	1           	0           	Open  	;
 5               	J10             	J14             	1000        	500         	1           	0           	Open  	;
 7               	J14             	J12             	1000        	500         	1           	0           	Open  	;
 8               	East_brent      	J9              	1000        	500         	1           	0           	Open  	;
 9               	J9              	J8              	1000        	500         	1           	0           	Open  	;
 10              	J8              	Brent_knoll     	1000        	500         	1           	0           	Open  	;
 11              	Brent_knoll     	J5              	1000        	500         	1           	0           	Open  	;
 12              	J5              	J6              	1000        	500         	1           	0           	Open  	;
 13              	J5              	J8              	1000        	500         	1           	0           	Open  	;
 14              	J5              	J4              	1000        	500         	1           	0           	Open  	;
 15              	J4              	J15             	1000        	500         	1           	0           	Open  	;
 16              	J15             	J16             	1000        	500         	1           	0           	Open  	;
 17              	J3              	J15             	1000        	500         	1           	0           	Open  	;
 18              	J17             	J9              	1000        	500         	1           	0           	Open  	;
 19              	J17             	J3              	1000        	500         	1           	0           	Open  	;
 20              	J3              	J44             	1000        	500         	1           	0           	Open  	;
 21              	J1              	J2              	1000        	500         	1           	0           	Open  	;
 22              	Winscombe_hill  	J19             	1000        	500         	1           	0           	Open  	;
 23              	J20             	J17             	4400        	500         	1           	0           	Open  	;
 6               	J13             	J14             	1000        	500         	1           	0           	Open  	;

[PUMPS]
;ID              	Node1           	Node2           	Parameters
 Winscombe_hill  	J1              	J19             	HEAD Winscombe_hill	;
 Cheddar_to_B    	Cheddar_TW      	J20             	HEAD Cheddar_to_B	;
 Winscombe_transfer	J44             	J1              	HEAD Winscombe_transfer	;

[VALVES]
;ID              	Node1           	Node2           	Diameter    	Type	Setting     	MinorLoss   

[TAGS]

[DEMANDS]
;Junction        	Demand      	Pattern         	Category

[STATUS]
;ID              	Status/Setting

[PATTERNS]
;ID              	Multipliers
;
 domestic        	0.2         	0.1         	0.1         	0.3         	0.4         	0.7         
 domestic        	1.4         	1.6         	1.2         	1           	0.8         	1.3         
 domestic        	1.4         	1.2         	1           	1           	1.5         	1.9         
 domestic        	2.1         	1.8         	1.2         	1           	0.5         	0.2         

[CURVES]
;ID              	X-Value     	Y-Value
;PUMP: PUMP: PUMP: PUMP: PUMP: PUMP: Fixed version
 Almondsbury     	0           	87.5        
 Almondsbury     	50          	80          
 Almondsbury     	100         	74          
 Almondsbury     	150         	68          
 Almondsbury     	200         	52          
;PUMP: PUMP: PUMP: PUMP: PUMP: Fixed version
 Bagley          	0           	35          
 Bagley          	1           	33.5        
 Bagley          	2           	30          
 Bagley          	3           	21          
;PUMP: PUMP: PUMP: PUMP: PUMP: Fixed version
 Barrow          	0           	118         
 Barrow          	100         	115         
 Barrow          	200         	102         
 Barrow          	300         	93          
 Barrow          	380         	79          
;PUMP: PUMP: PUMP: PUMP: PUMP: Fixed version
 Blackwell       	0           	86          
 Blackwell       	50          	84          
 Blackwell       	100         	82          
 Blackwell       	150         	76          
 Blackwell       	200         	58          
 Blackwell       	215         	51          
;PUMP: PUMP: PUMP: PUMP: PUMP: Fixed version
 Bleadney        	0           	61          
 Bleadney        	2           	58          
 Bleadney        	4           	53          
 Bleadney        	6           	45          
 Bleadney        	7.5         	32          
;PUMP: PUMP: PUMP: PUMP: PUMP: Fixed version
 Chase           	0           	34          
 Chase           	25          	33          
 Chase           	50          	32          
 Chase           	80          	30          
 Chase           	100         	28          
 Chase           	120         	23          
;PUMP: PUMP: PUMP: PUMP: PUMP: Fixed version
 Cheddar_to_B    	0           	82          
 Cheddar_to_B    	100         	78          
 Cheddar_to_B    	200         	70          
 Cheddar_to_B    	300         	56          
;PUMP: PUMP: PUMP: PUMP: PUMP: Fixed version
 Cheddar_to_C    	0           	131         
 Cheddar_to_C    	20          	125         
 Cheddar_to_C    	40          	120         
 Cheddar_to_C    	60          	82          
 Cheddar_to_C    	70          	55          
;PUMP: PUMP: PUMP: PUMP: PUMP: Fixed version
 Cheddar_to_D    	0           	90          
 Cheddar_to_D    	50          	89          
 Cheddar_to_D    	100         	87          
 Cheddar_to_D    	150         	85          
 Cheddar_to_D    	200         	82          
;PUMP: PUMP: PUMP: PUMP: PUMP: Fixed version
 Chelvey         	0           	85          
 Chelvey         	50          	84          
 Chelvey         	100         	82          
 Chelvey         	150         	76          
 Chelvey         	200         	60          
 Chelvey         	220         	50          
;PUMP: PUMP: PUMP: PUMP: PUMP: Fixed version
 Cinnamon_lane   	0           	45          
 Cinnamon_lane   	2           	44          
 Cinnamon_lane   	4           	42          
 Cinnamon_lane   	6           	38          
 Cinnamon_lane   	8           	30.5        
 Cinnamon_lane   	9           	27          
;PUMP: PUMP: PUMP: PUMP: PUMP: Fixed version
 Cooks_Corner    	0           	76          
 Cooks_Corner    	50          	73          
 Cooks_Corner    	100         	70          
 Cooks_Corner    	150         	66          
 Cooks_Corner    	200         	58          
 Cooks_Corner    	240         	49          
;PUMP: PUMP: PUMP: PUMP: PUMP: Fixed version
 Edgarley        	0           	104         
 Edgarley        	2           	103         
 Edgarley        	4           	95          
 Edgarley        	6           	71          
 Edgarley        	7           	58          
;PUMP: PUMP: PUMP: PUMP: PUMP: Fixed version
 Honeyhurst      	0           	40          
 Honeyhurst      	20          	38          
 Honeyhurst      	40          	36          
 Honeyhurst      	56          	22          
;PUMP: PUMP: PUMP: PUMP: PUMP: Fixed version
 Leigholt_to_E   	0           	118         
 Leigholt_to_E   	5           	106         
 Leigholt_to_E   	10          	92          
 Leigholt_to_E   	15          	74          
 Leigholt_to_E   	19          	57          
;PUMP: PUMP: PUMP: PUMP: PUMP: Fixed version
 Leigholt_to_I   	0           	55          
 Leigholt_to_I   	10          	54          
 Leigholt_to_I   	20          	51          
 Leigholt_to_I   	30          	44          
 Leigholt_to_I   	40          	35.5        
 Leigholt_to_I   	46          	30          
;PUMP: PUMP: PUMP: PUMP: PUMP: Fixed version
 Littleton       	0           	112         
 Littleton       	100         	100         
 Littleton       	200         	83          
 Littleton       	300         	58          
 Littleton       	330         	42          
;PUMP: PUMP: PUMP: PUMP: PUMP: Fixed version
 Notting_Hill    	0           	44.8        
 Notting_Hill    	2           	41.8        
 Notting_Hill    	4           	36          
 Notting_Hill    	5.6         	29.8        
;PUMP: PUMP: PUMP: PUMP: PUMP: Fixed version
 Page_Lane       	0           	136         
 Page_Lane       	10          	114         
 Page_Lane       	20          	96          
 Page_Lane       	28          	76          
;PUMP: PUMP: PUMP: PUMP: PUMP: Fixed version
 Whitechurch     	0           	37          
 Whitechurch     	100         	36          
 Whitechurch     	200         	32          
 Whitechurch     	300         	24          
;PUMP: PUMP: PUMP: PUMP: PUMP: Fixed version
 Winscombe_hill  	0           	105         
 Winscombe_hill  	2           	104         
 Winscombe_hill  	4           	102         
 Winscombe_hill  	6           	94          
 Winscombe_hill  	8           	78          
 Winscombe_hill  	9           	69          
;PUMP: PUMP: PUMP: PUMP: PUMP: Fixed version
 Winscombe_transfer	0           	50          
 Winscombe_transfer	50          	48          
 Winscombe_transfer	100         	42          
 Winscombe_transfer	150         	29          
;PUMP: PUMP: PUMP: PUMP: PUMP: Fixed version
 Hillhouse       	0           	75          
 Hillhouse       	10          	64          
 Hillhouse       	20          	56          
 Hillhouse       	30          	20          

[CONTROLS]












[RULES]












[ENERGY]
 Global Efficiency  	75
 Global Price       	0
 Demand Charge      	0

[EMITTERS]
;Junction        	Coefficient

[QUALITY]
;Node            	InitQual

[SOURCES]
;Node            	Type        	Quality     	Pattern

[REACTIONS]
;Type     	Pipe/Tank       	Coefficient


[REACTIONS]
 Order Bulk            	1
 Order Tank            	1
 Order Wall            	1
 Global Bulk           	0
 Global Wall           	0
 Limiting Potential    	0
 Roughness Correlation 	0

[MIXING]
;Tank            	Model

[TIMES]
 Duration           	0:00 
 Hydraulic Timestep 	1:00 
 Quality Timestep   	0:05 
 Pattern Timestep   	1:00 
 Pattern Start      	0:00 
 Report Timestep    	1:00 
 Report Start       	0:00 
 Start ClockTime    	12 am
 Statistic          	NONE

[REPORT]
 Status             	No
 Summary            	No
 Page               	0

[OPTIONS]
 Units              	LPS
 Headloss           	D-W
 Specific Gravity   	1
 Viscosity          	1
 Trials             	40
 Accuracy           	0.001
 CHECKFREQ          	2
 MAXCHECK           	10
 DAMPLIMIT          	0
 Unbalanced         	Continue 10
 Pattern            	Peak1
 Demand Multiplier  	1.0
 Emitter Exponent   	0.5
 Quality            	None mg/L
 Diffusivity        	1
 Tolerance          	0.01

[COORDINATES]
;Node            	X-Coord         	Y-Coord
 J1              	308.22          	6643.84         
 J2              	-4.89           	7612.52         
 J3              	640.90          	5567.51         
 J4              	-748.53         	5440.31         
 J5              	-1120.35        	4637.96         
 J6              	-1609.59        	4628.18         
 J7              	-1871.60        	2872.69         
 J8              	-288.65         	4618.40         
 J9              	4.89            	4647.75         
 J10             	-200.59         	3170.25         
 J11             	-141.88         	2514.68         
 J12             	-895.30         	3248.53         
 J13             	-772.58         	3525.57         
 J14             	-494.13         	3189.82         
 J15             	-171.23         	5489.24         
 J16             	-386.50         	5792.56         
 J17             	1081.21         	5117.42         
 J19             	728.96          	6722.11         
 J20             	2372.80         	5577.30         
 J44             	415.85          	6183.95         
 Cheddar_TW      	2894.45         	5048.97         
 Brean_res       	-2255.38        	6966.73         
 Winscombe_hill  	1139.92         	6027.40         
 Brent_knoll     	-787.67         	4657.53         
 East_brent      	-161.45         	3551.86         

[VERTICES]
;Link            	X-Coord         	Y-Coord
 2               	-1863.99        	3268.10         
 13              	-865.95         	4941.29         
 13              	-386.50         	4863.01         

[LABELS]
;X-Coord           Y-Coord          Label & Anchor Node

[BACKDROP]
 DIMENSIONS     	0.00            	0.00            	10000.00        	10000.00        
 UNITS          	None
 FILE           	
 OFFSET         	0.00            	0.00            

[END]
