[TITLE]


[JUNCTIONS]
;ID              	Elev        	Demand      	Pattern         
 J22             	0           	0           	                	;
 J23             	0           	4           	domestic        	;
 J25             	20          	20          	domestic        	;
 J26             	15          	0           	                	;
 J27             	0           	0           	                	;
 J28             	0           	0           	domestic        	;
 J29             	15          	0           	                	;
 J30             	0           	0           	                	;
 J31             	0           	10          	domestic        	;
 J32             	20          	10          	domestic        	;
 J33             	30          	20          	domestic        	;
 J34             	20          	0           	                	;
 J35             	50          	20          	domestic        	;
 J36             	50          	5           	domestic        	;
 J37             	50          	5           	domestic        	;
 J38             	20          	20          	domestic        	;
 J39             	0           	0           	                	;
 J40             	0           	0           	domestic        	;
 J41             	0           	40          	                	;
 J45             	0           	5           	                	;
 J46             	60          	4           	                	;
 J50             	50          	5           	                	;

[RESERVOIRS]
;ID              	Head        	Pattern         
 Cheddar_TW      	2           	                	;

[TANKS]
;ID              	Elevation   	InitLevel   	MinLevel    	MaxLevel    	Diameter    	MinVol      	VolCurve
 Bagley          	68.9        	1           	0           	2.4         	5.49        	0           	                	;
 Draycott        	57.87       	1           	0           	40.13       	17.55       	0           	                	;
 Hillhouse       	64.23       	1           	0           	50          	8.5         	0           	                	;
 Milton_lane     	113.9       	1           	0           	3.23        	23.8        	0           	                	;
 Yarley          	61.6        	1           	0           	400.2       	5.8         	0           	                	;
 Leigholt        	50          	1           	0           	400.9       	6.65        	0           	                	;
 Ivythorn        	0.856       	1           	0           	400         	13.44       	0           	                	;
 Elderbush       	0.927       	1           	0           	100.5       	9.82        	0           	                	;
 Tenacre_res     	0.878       	1           	0           	300.6       	6.34        	0           	                	;
 Windmill_hill   	0.582       	1           	0           	400.3       	12.9        	0           	                	;

[PIPES]
;ID              	Node1           	Node2           	Length      	Diameter    	Roughness   	MinorLoss   	Status
 26              	Bagley          	J23             	1000        	500         	1           	0           	Open  	;
 27              	J28             	J23             	1100        	100         	0.5         	0           	Open  	;
 28              	J27             	J26             	500         	700         	1           	0           	Open  	;
 29              	J26             	J25             	3000        	700         	1           	0           	Open  	;
 30              	J25             	J22             	5270        	700         	1           	0           	Open  	;
 31              	Draycott        	J25             	1000        	500         	1           	0           	Open  	;
 32              	Hillhouse       	J50             	500         	230         	1           	0           	Open  	;
 33              	Milton_lane     	J31             	300         	150         	1           	0           	Open  	;
 34              	J31             	Yarley          	5000        	120         	1           	0           	Open  	;
 35              	J31             	J30             	1000        	500         	1           	0           	Open  	;
 36              	J37             	Elderbush       	1500        	80          	1           	0           	Open  	;
 37              	Elderbush       	J36             	1200        	120         	1           	0           	Open  	;
 38              	Ivythorn        	J35             	1000        	500         	1           	0           	Open  	;
 39              	J27             	J32             	500         	700         	1           	0           	Open  	;
 40              	J34             	Leigholt        	1000        	500         	1           	0           	Open  	;
 41              	J34             	J33             	1000        	500         	1           	0           	Open  	;
 42              	J33             	J38             	1000        	500         	1           	0           	Open  	;
 43              	J38             	Windmill_hill   	1000        	500         	1           	0           	Open  	;
 44              	J38             	J39             	1000        	500         	1           	0           	Open  	;
 45              	J40             	Tenacre_res     	1000        	500         	1           	0           	Open  	;
 47              	J39             	J41             	1000        	500         	1           	0           	Open  	;
 24              	J45             	Yarley          	1000        	500         	1           	0           	Open  	;
 54              	J46             	Tenacre_res     	400         	80          	1           	0           	Open  	;
 55              	J50             	J29             	500         	230         	1           	0           	Open  	;
 P1              	J32             	J34             	50          	700         	1           	0           	CV    	;

[PUMPS]
;ID              	Node1           	Node2           	Parameters
 Cheddar_to_D    	Cheddar_TW      	J22             	HEAD Cheddar_to_D	;
 Bleadney        	J27             	J28             	HEAD Bleadney	;
 Honeyhurst      	J26             	J29             	HEAD Honeyhurst	;
 Hillhouse       	Hillhouse       	J30             	HEAD Hillhouse	;
 Cooks_Corner    	J32             	J34             	HEAD Cooks_Corner	;
 Cinnamon_lane   	J39             	J40             	HEAD Cinnamon_lane	;
 Leigholt_to_I   	Leigholt        	J35             	HEAD Leigholt_to_I	;
 Leigholt_to_E   	Leigholt        	J36             	HEAD Leigholt_to_E	;

[VALVES]
;ID              	Node1           	Node2           	Diameter    	Type	Setting     	MinorLoss   

[TAGS]

[DEMANDS]
;Junction        	Demand      	Pattern         	Category

[STATUS]
;ID              	Status/Setting

[PATTERNS]
;ID              	Multipliers
;
 domestic        	0.2         	0.1         	0.1         	0.3         	0.4         	0.7         
 domestic        	1.4         	1.6         	1.2         	1           	0.8         	1.3         
 domestic        	1.4         	1.2         	1           	1           	1.5         	1.9         
 domestic        	2.1         	1.8         	1.2         	1           	0.5         	0.2         

[CURVES]
;ID              	X-Value     	Y-Value
;PUMP: PUMP: PUMP: PUMP: PUMP: PUMP: PUMP: PUMP: PUMP: Fixed version
 Almondsbury     	0           	87.5        
 Almondsbury     	50          	80          
 Almondsbury     	100         	74          
 Almondsbury     	150         	68          
 Almondsbury     	200         	52          
;PUMP: PUMP: PUMP: PUMP: PUMP: PUMP: PUMP: PUMP: Fixed version
 Bagley          	0           	35          
 Bagley          	1           	33.5        
 Bagley          	2           	30          
 Bagley          	3           	21          
;PUMP: PUMP: PUMP: PUMP: PUMP: PUMP: PUMP: PUMP: Fixed version
 Barrow          	0           	118         
 Barrow          	100         	115         
 Barrow          	200         	102         
 Barrow          	300         	93          
 Barrow          	380         	79          
;PUMP: PUMP: PUMP: PUMP: PUMP: PUMP: PUMP: PUMP: Fixed version
 Blackwell       	0           	86          
 Blackwell       	50          	84          
 Blackwell       	100         	82          
 Blackwell       	150         	76          
 Blackwell       	200         	58          
 Blackwell       	215         	51          
;PUMP: PUMP: PUMP: PUMP: PUMP: PUMP: PUMP: PUMP: Fixed version
 Bleadney        	0           	61          
 Bleadney        	2           	58          
 Bleadney        	4           	53          
 Bleadney        	6           	45          
 Bleadney        	7.5         	32          
;PUMP: PUMP: PUMP: PUMP: PUMP: PUMP: PUMP: PUMP: Fixed version
 Chase           	0           	34          
 Chase           	25          	33          
 Chase           	50          	32          
 Chase           	80          	30          
 Chase           	100         	28          
 Chase           	120         	23          
;PUMP: PUMP: PUMP: PUMP: PUMP: PUMP: PUMP: PUMP: Fixed version
 Cheddar_to_B    	0           	82          
 Cheddar_to_B    	100         	78          
 Cheddar_to_B    	200         	70          
 Cheddar_to_B    	300         	56          
;PUMP: PUMP: PUMP: PUMP: PUMP: PUMP: PUMP: PUMP: Fixed version
 Cheddar_to_C    	0           	131         
 Cheddar_to_C    	20          	125         
 Cheddar_to_C    	40          	120         
 Cheddar_to_C    	60          	82          
 Cheddar_to_C    	70          	55          
;PUMP: PUMP: PUMP: PUMP: PUMP: PUMP: PUMP: PUMP: Fixed version
 Cheddar_to_D    	0           	90          
 Cheddar_to_D    	50          	89          
 Cheddar_to_D    	100         	87          
 Cheddar_to_D    	150         	85          
 Cheddar_to_D    	200         	82          
;PUMP: PUMP: PUMP: PUMP: PUMP: PUMP: PUMP: PUMP: Fixed version
 Chelvey         	0           	85          
 Chelvey         	50          	84          
 Chelvey         	100         	82          
 Chelvey         	150         	76          
 Chelvey         	200         	60          
 Chelvey         	220         	50          
;PUMP: PUMP: PUMP: PUMP: PUMP: PUMP: PUMP: PUMP: Fixed version
 Cinnamon_lane   	0           	45          
 Cinnamon_lane   	2           	44          
 Cinnamon_lane   	4           	42          
 Cinnamon_lane   	6           	38          
 Cinnamon_lane   	8           	30.5        
 Cinnamon_lane   	9           	27          
;PUMP: PUMP: PUMP: PUMP: PUMP: PUMP: PUMP: PUMP: Fixed version
 Cooks_Corner    	0           	76          
 Cooks_Corner    	50          	73          
 Cooks_Corner    	100         	70          
 Cooks_Corner    	150         	66          
 Cooks_Corner    	200         	58          
 Cooks_Corner    	240         	49          
;PUMP: PUMP: PUMP: PUMP: PUMP: PUMP: PUMP: PUMP: Fixed version
 Edgarley        	0           	104         
 Edgarley        	2           	103         
 Edgarley        	4           	95          
 Edgarley        	6           	71          
 Edgarley        	7           	58          
;PUMP: PUMP: PUMP: PUMP: PUMP: PUMP: PUMP: PUMP: Fixed version
 Honeyhurst      	0           	40          
 Honeyhurst      	20          	38          
 Honeyhurst      	40          	36          
 Honeyhurst      	56          	22          
;PUMP: PUMP: PUMP: PUMP: PUMP: PUMP: PUMP: PUMP: Fixed version
 Leigholt_to_E   	0           	118         
 Leigholt_to_E   	5           	106         
 Leigholt_to_E   	10          	92          
 Leigholt_to_E   	15          	74          
 Leigholt_to_E   	19          	57          
;PUMP: PUMP: PUMP: PUMP: PUMP: PUMP: PUMP: PUMP: Fixed version
 Leigholt_to_I   	0           	55          
 Leigholt_to_I   	10          	54          
 Leigholt_to_I   	20          	51          
 Leigholt_to_I   	30          	44          
 Leigholt_to_I   	40          	35.5        
 Leigholt_to_I   	46          	30          
;PUMP: PUMP: PUMP: PUMP: PUMP: PUMP: PUMP: PUMP: Fixed version
 Littleton       	0           	112         
 Littleton       	100         	100         
 Littleton       	200         	83          
 Littleton       	300         	58          
 Littleton       	330         	42          
;PUMP: PUMP: PUMP: PUMP: PUMP: PUMP: PUMP: PUMP: Fixed version
 Notting_Hill    	0           	44.8        
 Notting_Hill    	2           	41.8        
 Notting_Hill    	4           	36          
 Notting_Hill    	5.6         	29.8        
;PUMP: PUMP: PUMP: PUMP: PUMP: PUMP: PUMP: PUMP: Fixed version
 Page_Lane       	0           	136         
 Page_Lane       	10          	114         
 Page_Lane       	20          	96          
 Page_Lane       	28          	76          
;PUMP: PUMP: PUMP: PUMP: PUMP: PUMP: PUMP: PUMP: Fixed version
 Whitechurch     	0           	37          
 Whitechurch     	100         	36          
 Whitechurch     	200         	32          
 Whitechurch     	300         	24          
;PUMP: PUMP: PUMP: PUMP: PUMP: PUMP: PUMP: PUMP: Fixed version
 Winscombe_hill  	0           	105         
 Winscombe_hill  	2           	104         
 Winscombe_hill  	4           	102         
 Winscombe_hill  	6           	94          
 Winscombe_hill  	8           	78          
 Winscombe_hill  	9           	69          
;PUMP: PUMP: PUMP: PUMP: PUMP: PUMP: PUMP: PUMP: Fixed version
 Winscombe_transfer	0           	50          
 Winscombe_transfer	50          	48          
 Winscombe_transfer	100         	42          
 Winscombe_transfer	150         	29          
;PUMP: PUMP: PUMP: PUMP: PUMP: PUMP: PUMP: PUMP: Fixed version
 Hillhouse       	0           	75          
 Hillhouse       	10          	64          
 Hillhouse       	20          	56          
 Hillhouse       	30          	20          

[CONTROLS]















[RULES]















[ENERGY]
 Global Efficiency  	75
 Global Price       	0
 Demand Charge      	0

[EMITTERS]
;Junction        	Coefficient

[QUALITY]
;Node            	InitQual

[SOURCES]
;Node            	Type        	Quality     	Pattern

[REACTIONS]
;Type     	Pipe/Tank       	Coefficient


[REACTIONS]
 Order Bulk            	1
 Order Tank            	1
 Order Wall            	1
 Global Bulk           	0
 Global Wall           	0
 Limiting Potential    	0
 Roughness Correlation 	0

[MIXING]
;Tank            	Model

[TIMES]
 Duration           	0:00 
 Hydraulic Timestep 	1:00 
 Quality Timestep   	0:05 
 Pattern Timestep   	1:00 
 Pattern Start      	0:00 
 Report Timestep    	1:00 
 Report Start       	0:00 
 Start ClockTime    	12 am
 Statistic          	NONE

[REPORT]
 Status             	No
 Summary            	No
 Page               	0

[OPTIONS]
 Units              	LPS
 Headloss           	D-W
 Specific Gravity   	1
 Viscosity          	1
 Trials             	40
 Accuracy           	0.001
 CHECKFREQ          	2
 MAXCHECK           	10
 DAMPLIMIT          	0
 Unbalanced         	Continue 10
 Pattern            	Peak1
 Demand Multiplier  	1.0
 Emitter Exponent   	0.5
 Quality            	None mg/L
 Diffusivity        	1
 Tolerance          	0.01

[COORDINATES]
;Node            	X-Coord         	Y-Coord
 J22             	2500.00         	4442.27         
 J23             	2128.18         	2749.51         
 J25             	3194.72         	3757.34         
 J26             	3820.94         	3238.75         
 J27             	4094.91         	3023.48         
 J28             	3488.26         	2896.28         
 J29             	4104.70         	3571.43         
 J30             	5210.37         	4735.81         
 J31             	6139.92         	5499.02         
 J32             	4461.37         	2872.69         
 J33             	5259.30         	2544.03         
 J34             	4770.06         	2534.25         
 J35             	5259.30         	998.04          
 J36             	5572.41         	1272.02         
 J37             	6854.21         	450.10          
 J38             	5856.16         	2358.12         
 J39             	6472.60         	1506.85         
 J40             	6727.01         	1780.82         
 J41             	7216.24         	1144.81         
 J45             	7040.12         	4921.72         
 J46             	7128.18         	2504.89         
 J50             	4368.88         	4090.02         
 Cheddar_TW      	2894.45         	5048.97         
 Bagley          	2137.96         	2485.32         
 Draycott        	3674.17         	4344.42         
 Hillhouse       	4715.74         	4416.91         
 Milton_lane     	7069.47         	6418.79         
 Yarley          	6736.79         	5078.28         
 Leigholt        	5114.25         	1882.48         
 Ivythorn        	5190.80         	489.24          
 Elderbush       	6139.92         	616.44          
 Tenacre_res     	7010.76         	2289.63         
 Windmill_hill   	6081.21         	2847.36         

[VERTICES]
;Link            	X-Coord         	Y-Coord
 36              	6139.92         	577.30          
 44              	5699.61         	1917.81         
 P1              	4730.32         	2944.61         
 P1              	4846.94         	2740.52         
 Leigholt_to_I   	5122.31         	1340.51         

[LABELS]
;X-Coord           Y-Coord          Label & Anchor Node

[BACKDROP]
 DIMENSIONS     	0.00            	0.00            	10000.00        	10000.00        
 UNITS          	None
 FILE           	
 OFFSET         	0.00            	0.00            

[END]
