[TITLE]


[JUNCTIONS]
;ID              	Elev        	Demand      	Pattern         
 J1              	10          	0           	                	;
 J2              	50          	0           	                	;
 J3              	20          	30          	domestic        	;
 J4              	20          	40          	indust          	;
 J5              	0           	0           	                	;
 J6              	30          	60          	domestic          	;
 J7              	10          	70          	domestic          	;

[RESERVOIRS]
;ID              	Head        	Pattern         
 R1              	0           	                	;

[TANKS]
;ID              	Elevation   	InitLevel   	MinLevel    	MaxLevel    	Diameter    	MinVol      	VolCurve
 T1              	80          	5           	0           	10          	50          	0           	                	;
 T2              	70          	10          	0           	20          	50          	0           	                	;

[PIPES]
;ID              	Node1           	Node2           	Length      	Diameter    	Roughness   	MinorLoss   	Status
 P1              	J1              	T1              	2755.11     	800         	80          	0           	Open  	;
 P2              	T1              	J2              	1137.02     	500         	100         	0           	Open  	;
 P3              	J2              	J3              	1253.64     	300         	120         	0           	Open  	;
 P4              	J2              	J4              	1967.93     	300         	130         	0           	Open  	;
 P5              	J2              	J5              	1620        	500         	100         	0           	Open  	;
 P6              	J5              	T2              	830.91      	500         	100         	0           	Open  	;
 P7              	J5              	J6              	976.67      	200         	90          	0           	Open  	;
 P8              	J5              	J7              	1180.76     	300         	110         	0           	Open  	;
 P9              	J4              	J7              	1000        	300         	100         	0           	Open  	;

[PUMPS]
;ID              	Node1           	Node2           	Parameters
 Pump1           	R1              	J1              	HEAD 200-90 	;
 Pump2           	R1              	J1              	HEAD 200-90 	;
 Pump3           	R1              	J1              	HEAD 200-90 	;

[VALVES]
;ID              	Node1           	Node2           	Diameter    	Type	Setting     	MinorLoss   

[TAGS]

[DEMANDS]
;Junction        	Demand      	Pattern         	Category

[STATUS]
;ID              	Status/Setting

[PATTERNS]
;ID              	Multipliers
;Domestic demand
 domestic        	0.5         	0.6         	0.6         	0.6         	0.6         	0.6         
 domestic        	0.5         	0.6         	0.6         	0.6         	0.6         	0.6         
 domestic        	0.5         	0.6         	0.6         	0.6         	0.6         	0.6         
 domestic        	0.5         	0.6         	0.6         	0.6         	0.6         	0.6         
 domestic        	0.5         	0.6         	0.6         	0.6         	0.6         	0.6         
 domestic        	0.5         	0.6         	0.6         	0.6         	0.6         	0.6         
 domestic        	0.5         	0.6         	0.6         	0.6         	0.6         	0.6         
 domestic        	0.5         	0.6         	0.6         	0.6         	0.6         	0.6         
;Industrial demand
 indust          	0.1         	0.12        	0.11        	0.12        	0.1         	0.1         
 indust          	0.11        	0.13        	0.15        	0.2         	0.22        	0.4         
 indust          	0.8         	1.2         	1.8         	2.1         	1.85        	1.87        
 indust          	1.75        	1.67        	1.5         	1.47        	1.5         	1.7         
 indust          	2           	2.2         	1.9         	1.74        	1.5         	1.3         
 indust          	1.35        	1.5         	1.4         	1.2         	1.1         	1.2         
 indust          	1.3         	1.2         	1.1         	1           	0.85        	0.75        
 indust          	0.72        	0.72        	0.3         	0.2         	0.1         	0.1         

[CURVES]
;ID              	X-Value     	Y-Value
;PUMP: 
 200-90          	0           	120         
 200-90          	100         	110         
 200-90          	200         	90          
 200-90          	300         	50          
 200-90          	380         	0 

[CONTROLS]




[RULES]




[ENERGY]
 Global Efficiency  	75
 Global Price       	0
 Demand Charge      	0

[EMITTERS]
;Junction        	Coefficient

[QUALITY]
;Node            	InitQual

[SOURCES]
;Node            	Type        	Quality     	Pattern

[REACTIONS]
;Type     	Pipe/Tank       	Coefficient


[REACTIONS]
 Order Bulk            	1
 Order Tank            	1
 Order Wall            	1
 Global Bulk           	0
 Global Wall           	0
 Limiting Potential    	0
 Roughness Correlation 	0

[MIXING]
;Tank            	Model

[TIMES]
 Duration           	0:00 
 Hydraulic Timestep 	1:00 
 Quality Timestep   	0:05 
 Pattern Timestep   	0:30
 Pattern Start      	0:00 
 Report Timestep    	1:00 
 Report Start       	0:00 
 Start ClockTime    	12 am
 Statistic          	NONE

[REPORT]
 Status             	No
 Summary            	No
 Page               	0

[OPTIONS]
 Units              	GPM
 Headloss           	H-W
 Specific Gravity   	1
 Viscosity          	1
 Trials             	40
 Accuracy           	0.001
 CHECKFREQ          	2
 MAXCHECK           	10
 DAMPLIMIT          	0
 Unbalanced         	Continue 10
 Pattern            	1
 Demand Multiplier  	1.0
 Emitter Exponent   	0.5
 Quality            	None mg/L
 Diffusivity        	1
 Tolerance          	0.01

[COORDINATES]
;Node            	X-Coord         	Y-Coord
 J1              	1202.62         	5014.58         
 J2              	5094.75         	5014.58         
 J3              	5094.75         	6268.22         
 J4              	5094.75         	3046.65         
 J5              	6639.94         	5014.58         
 J6              	6639.94         	5991.25         
 J7              	6639.94         	3833.82         
 R1              	-940.23         	5014.58         
 T1              	3957.73         	5014.58         
 T2              	7470.85         	5014.58         

[VERTICES]
;Link            	X-Coord         	Y-Coord
 P9              	6639.94         	3046.65         
 Pump1           	-575.80         	5510.20         
 Pump1           	736.15          	5510.20         
 Pump3           	-634.11         	4387.76         
 Pump3           	721.57          	4387.76         

[LABELS]
;X-Coord           Y-Coord          Label & Anchor Node

[BACKDROP]
 DIMENSIONS     	0.00            	0.00            	10000.00        	10000.00        
 UNITS          	None
 FILE           	
 OFFSET         	0.00            	0.00            

[END]
