[TITLE]


[JUNCTIONS]
;ID              	Elev        	Demand      	Pattern         
 JJ2             	6           	0           	                	;
 DMA2164         	80          	10          	DMA2164         	;
 JJ4             	85          	10          	dom             	;
 JJ9             	5           	50          	dom             	;
 JJ5             	70          	15          	dom             	;
 JJ6             	70          	50          	dom             	;
 JJ7             	50          	25          	dom             	;
 DMA1060         	68          	10          	dom             	;
 NM              	55          	120         	NM              	;
 DMA2090         	50          	25          	DMA2090         	;

[RESERVOIRS]
;ID              	Head        	Pattern         
 R1              	6           	                	;

[TANKS]
;ID              	Elevation   	InitLevel   	MinLevel    	MaxLevel    	Diameter    	MinVol      	VolCurve
 Cromhall        	86          	1           	0           	2.2         	75          	0           	                	;
 Pucklechurch    	73          	2           	0           	6.7         	1500        	0           	                	;

[PIPES]
;ID              	Node1           	Node2           	Length      	Diameter    	Roughness   	MinorLoss   	Status
 1               	JJ2             	DMA2164         	12000       	1800        	90          	0           	Open  	;
 2               	DMA2164         	JJ4             	5000        	1800        	90          	0           	Open  	;
 3               	JJ4             	JJ5             	2000        	800         	95          	0           	Open  	;
 4               	JJ5             	JJ6             	1000        	499         	100         	0           	Open  	;
 5               	DMA1060         	JJ7             	1000        	650         	100         	0           	Open  	;
 8               	JJ4             	Cromhall        	730         	950         	100         	0           	Open  	;
 9               	Cromhall        	JJ9             	1000        	300         	100         	0           	Open  	;
 6               	JJ6             	Pucklechurch    	730         	500         	100         	0           	Open  	;
 7               	Pucklechurch    	DMA1060         	1000        	650         	100         	0           	Open  	;
 12              	JJ7             	NM              	1000        	499         	100         	0           	Open  	;
 19              	JJ5             	DMA2090         	15000       	981         	90          	0           	Open  	;

[PUMPS]
;ID              	Node1           	Node2           	Parameters
 High_lift1      	R1              	JJ2             	HEAD purton_high_lift	;
 High_lift2      	R1              	JJ2             	HEAD purton_high_lift	;
 High_lift3      	R1              	JJ2             	HEAD purton_high_lift	;

[VALVES]
;ID              	Node1           	Node2           	Diameter    	Type	Setting     	MinorLoss   

[TAGS]

[DEMANDS]
;Junction        	Demand      	Pattern         	Category

[STATUS]
;ID              	Status/Setting

[PATTERNS]
;ID              	Multipliers
;
 dom             	0.4319      	0.4535      	0.4859      	0.5075      	0.4319      	0.4211      
 dom             	0.4859      	0.6047      	0.6479      	0.8639      	1.5118      	1.8358      
 dom             	1.9438      	1.6198      	1.2958      	1.0799      	0.8639      	0.8099      
 dom             	0.7559      	0.6479      	0.8099      	0.7559      	0.8639      	0.8855      
 dom             	0.8639      	0.8531      	1.0259      	1.0475      	1.1879      	1.2418      
 dom             	1.2958      	1.5118      	1.7278      	1.7818      	1.9438      	2.1597      
 dom             	1.6198      	1.7278      	1.4038      	1.2958      	0.8639      	0.7559      
 dom             	0.5399      	0.4859      	0.4319      	0.3780      	0.4319      	0.4103      
;
 NM              	0.4685      	0.4942      	0.4742      	0.4113      	0.3980      	0.4059      
 NM              	0.4398      	0.5439      	0.7120      	0.8496      	1.5888      	1.8133      
 NM              	1.9968      	1.5986      	1.3570      	1.1305      	0.8391      	0.7528      
 NM              	0.8137      	0.7375      	0.7751      	0.7899      	0.8513      	0.9518      
 NM              	0.9173      	0.7863      	1.0979      	1.1450      	1.1903      	1.3182      
 NM              	1.3130      	1.4422      	1.6671      	1.7625      	1.9928      	2.2240      
 NM              	1.6772      	1.6909      	1.4101      	1.2134      	0.7859      	0.6829      
 NM              	0.5755      	0.4848      	0.3698      	0.3768      	0.3613      	0.3212      
;
 DMA2080         	0.3635      	0.3018      	0.2467      	0.2695      	0.3050      	0.3022      
 DMA2080         	0.3082      	0.3111      	0.3362      	0.4023      	0.5254      	0.8458      
 DMA2080         	1.2521      	1.5609      	1.5212      	1.3961      	1.2613      	1.1803      
 DMA2080         	1.1066      	0.9931      	0.9748      	0.9745      	0.9567      	0.8959      
 DMA2080         	0.8844      	0.8612      	0.8741      	0.8967      	0.8571      	0.8907      
 DMA2080         	0.9680      	1.0444      	1.1435      	1.2566      	1.4165      	1.6231      
 DMA2080         	1.7589      	1.8212      	1.9127      	2.0187      	2.0383      	1.7412      
 DMA2080         	1.4758      	1.2551      	0.9692      	0.7518      	0.5406      	0.4091      
;
 Cowley          	0.9375      	0.9948      	0.9986      	0.9974      	0.9961      	0.9919      
 Cowley          	0.9959      	0.9955      	0.9925      	1.0010      	0.9972      	0.9931      
 Cowley          	1.0058      	0.9957      	0.9976      	0.9959      	0.9879      	0.9944      
 Cowley          	1.0016      	0.9970      	0.9990      	0.9949      	1.0003      	0.9938      
 Cowley          	1.0010      	0.9940      	0.9915      	0.9952      	0.9938      	0.9950      
 Cowley          	0.9982      	0.9940      	0.9999      	0.9917      	1.0005      	0.9997      
 Cowley          	0.9955      	1.0003      	0.9986      	0.9959      	0.9976      	0.9972      
 Cowley          	0.9946      	0.9978      	1.0671      	1.0604      	1.0615      	1.0231      
;
 DMA2090         	0.7488      	0.7465      	0.7412      	0.7427      	0.7393      	0.7442      
 DMA2090         	0.8583      	0.8157      	0.7549      	0.7807      	0.8317      	0.9617      
 DMA2090         	1.0818      	1.0571      	1.1323      	1.1072      	1.0913      	1.0913      
 DMA2090         	1.0734      	1.0707      	1.0658      	1.0468      	1.0381      	1.0354      
 DMA2090         	1.0305      	1.0251      	1.0339      	1.0175      	1.0103      	1.0225      
 DMA2090         	1.0377      	1.0624      	1.0734      	1.0833      	1.0947      	1.1300      
 DMA2090         	1.1639      	1.1582      	1.1814      	1.2110      	1.1848      	1.1380      
 DMA2090         	1.0677      	1.0597      	1.0153      	0.9803      	0.9449      	0.9168      
;
 DMA2164         	0.4229      	0.3751      	0.3631      	0.3393      	0.3321      	0.3393      
 DMA2164         	0.3393      	0.4014      	0.4969      	0.8768      	1.0990      	1.3522      
 DMA2164         	1.5267      	1.3857      	1.2065      	1.2901      	1.2280      	1.2638      
 DMA2164         	1.1874      	1.2113      	1.1826      	1.2710      	1.1707      	1.1301      
 DMA2164         	1.0847      	1.0847      	1.1587      	1.0703      	1.1157      	1.3905      
 DMA2164         	1.3451      	1.3116      	1.2591      	1.5314      	1.5816      	1.3857      
 DMA2164         	1.3403      	1.5243      	1.3021      	1.1277      	1.0297      	0.9939      
 DMA2164         	0.8314      	0.7239      	0.5782      	0.5041      	0.4802      	0.4539      

[CURVES]
;ID              	X-Value     	Y-Value
;PUMP: PUMP: PUMP: PUMP: PUMP: PUMP: PUMP: PUMP: PUMP: PUMP: PUMP: 
 purton_high_lift	255         	234         
 purton_high_lift	341         	219         
 purton_high_lift	438         	198         
 purton_high_lift	510         	176         
 purton_high_lift	592         	145         
;PUMP: PUMP: PUMP: PUMP: PUMP: PUMP: PUMP: PUMP: PUMP: PUMP: PUMP: 
 Chelvey         	0           	86          
 Chelvey         	75          	84          
 Chelvey         	118         	81          
 Chelvey         	143         	77          
 Chelvey         	159         	74          
 Chelvey         	170         	71          
 Chelvey         	189         	65          
 Chelvey         	201         	59          
 Chelvey         	218         	50          
;PUMP: PUMP: PUMP: PUMP: PUMP: PUMP: PUMP: PUMP: PUMP: PUMP: PUMP: 
 Almondsbury     	0           	87          
 Almondsbury     	50          	80          
 Almondsbury     	95          	75          
 Almondsbury     	150         	68          
 Almondsbury     	200         	55          
;PUMP: PUMP: PUMP: PUMP: PUMP: PUMP: PUMP: PUMP: PUMP: PUMP: EFFICIENCY: 
 Power_Victoria  	0           	105         
 Power_Victoria  	50          	112         
 Power_Victoria  	92          	130         
 Power_Victoria  	149         	152         
 Power_Victoria  	200         	160         

[CONTROLS]
LINK High_lift1 OPEN  IF NODE Pucklechurch BELOW 0.5
LINK High_lift2 OPEN  IF NODE Cromhall BELOW 0.2
LINK High_lift3 OPEN  IF NODE Cromhall BELOW 0.1
LINK High_lift1 CLOSED IF NODE Pucklechurch ABOVE 6.1
LINK High_lift2 CLOSED IF NODE Cromhall ABOVE 2
LINK High_lift3 CLOSED IF NODE Cromhall ABOVE 1.9

LINK Almondsbury1 OPEN  IF NODE Pucklechurch BELOW 0.5
LINK Almondsbury2 OPEN  IF NODE Pucklechurch BELOW 0.2
LINK Almondsbury1 CLOSED IF NODE Pucklechurch ABOVE 6.5
LINK Almondsbury2 CLOSED IF NODE Pucklechurch ABOVE 6.3

LINK Chelvey1 OPEN  IF NODE RocksLane BELOW 0.5
LINK Chelvey2 OPEN  IF NODE RocksLane BELOW 0.2
LINK Chelvey2 CLOSED IF NODE RocksLane ABOVE 4
LINK Chelvey1 CLOSED IF NODE RocksLane ABOVE 3.9










[RULES]











[ENERGY]
 Global Efficiency  	75
 Global Price       	0
 Demand Charge      	0

[EMITTERS]
;Junction        	Coefficient

[QUALITY]
;Node            	InitQual

[SOURCES]
;Node            	Type        	Quality     	Pattern

[REACTIONS]
;Type     	Pipe/Tank       	Coefficient


[REACTIONS]
 Order Bulk            	1
 Order Tank            	1
 Order Wall            	1
 Global Bulk           	0
 Global Wall           	0
 Limiting Potential    	0
 Roughness Correlation 	0

[MIXING]
;Tank            	Model

[TIMES]
 Duration           	24:00 
 Hydraulic Timestep 	0:30 
 Quality Timestep   	0:05 
 Pattern Timestep   	0:30 
 Pattern Start      	0:00 
 Report Timestep    	0:30 
 Report Start       	0:00 
 Start ClockTime    	12 am
 Statistic          	NONE

[REPORT]
 Status             	No
 Summary            	No
 Page               	0

[OPTIONS]
 Units              	LPS
 Headloss           	H-W
 Specific Gravity   	1
 Viscosity          	1
 Trials             	40
 Accuracy           	0.001
 CHECKFREQ          	2
 MAXCHECK           	10
 DAMPLIMIT          	0
 Unbalanced         	Continue 10
 Pattern            	1
 Demand Multiplier  	1.0
 Emitter Exponent   	0.5
 Quality            	None mg/L
 Diffusivity        	1
 Tolerance          	0.01

[COORDINATES]
;Node            	X-Coord         	Y-Coord
 JJ2             	1544.34         	5428.13         
 DMA2164         	1638.94         	2671.23         
 JJ4             	1707.44         	1262.23         
 JJ9             	3253.42         	968.69          
 JJ5             	1580.23         	215.26          
 JJ6             	1658.51         	-704.50         
 JJ7             	1658.51         	-2524.46        
 DMA1060         	3429.55         	-831.70         
 NM              	3282.78         	-4921.72        
 DMA2090         	-1492.17        	-1956.95        
 R1              	-445.21         	5362.04         
 Cromhall        	2372.80         	1262.23         
 Pucklechurch    	2548.92         	-704.50         

[VERTICES]
;Link            	X-Coord         	Y-Coord
 19              	-1286.69        	-225.05         
 High_lift1      	45.87           	5810.40         
 High_lift1      	1070.34         	5810.40         
 High_lift3      	0.00            	4923.55         
 High_lift3      	1162.08         	4908.26         

[LABELS]
;X-Coord           Y-Coord          Label & Anchor Node

[BACKDROP]
 DIMENSIONS     	0.00            	0.00            	10000.00        	10000.00        
 UNITS          	None
 FILE           	
 OFFSET         	0.00            	0.00            

[END]
