  Page 1                                    Wed Dec 17 10:17:04 2014

  ******************************************************************
  *                           E P A N E T                          *
  *                   Hydraulic and Water Quality                  *
  *                   Analysis for Pipe Networks                   *
  *                         Version 2.00.12                        *
  ******************************************************************
  
  Analysis begun Wed Dec 17 10:17:04 2014

  WARNING: Negative pressures at 19:41:20 hrs.
  WARNING: Node J5 disconnected at 19:41:20 hrs
  WARNING: System disconnected because of Link 4
  
  WARNING: Negative pressures at 19:42:19 hrs.
  WARNING: Node J5 disconnected at 19:42:19 hrs
  WARNING: System disconnected because of Link 4
  
  WARNING: Negative pressures at 19:43:18 hrs.
  WARNING: Node J5 disconnected at 19:43:18 hrs
  WARNING: System disconnected because of Link 4
  
  WARNING: Negative pressures at 19:44:17 hrs.
  WARNING: Node J5 disconnected at 19:44:17 hrs
  WARNING: System disconnected because of Link 4
  
  WARNING: Negative pressures at 19:45:16 hrs.
  WARNING: Node J5 disconnected at 19:45:16 hrs
  WARNING: System disconnected because of Link 4
  
  WARNING: Negative pressures at 19:46:15 hrs.
  WARNING: Node J5 disconnected at 19:46:15 hrs
  WARNING: System disconnected because of Link 4
  
  WARNING: Negative pressures at 19:47:14 hrs.
  WARNING: Node J5 disconnected at 19:47:14 hrs
  WARNING: System disconnected because of Link 4
  
  WARNING: Negative pressures at 19:48:13 hrs.
  WARNING: Node J5 disconnected at 19:48:13 hrs
  WARNING: System disconnected because of Link 4
  
  WARNING: Negative pressures at 19:49:12 hrs.
  WARNING: Node J5 disconnected at 19:49:12 hrs
  WARNING: System disconnected because of Link 4
  
  WARNING: Negative pressures at 19:50:11 hrs.
  WARNING: Node J5 disconnected at 19:50:11 hrs
  WARNING: System disconnected because of Link 4
  
  WARNING: Negative pressures at 19:51:10 hrs.
  WARNING: Node J5 disconnected at 19:51:10 hrs
  WARNING: System disconnected because of Link 4
  
  WARNING: Negative pressures at 19:52:09 hrs.
  WARNING: Node J5 disconnected at 19:52:09 hrs
  WARNING: System disconnected because of Link 4
  
  WARNING: Negative pressures at 19:53:08 hrs.
  WARNING: Node J5 disconnected at 19:53:08 hrs
  WARNING: System disconnected because of Link 4
  
  WARNING: Negative pressures at 19:54:07 hrs.
  WARNING: Node J5 disconnected at 19:54:07 hrs
  WARNING: System disconnected because of Link 4
  
  WARNING: Negative pressures at 19:55:06 hrs.
  WARNING: Node J5 disconnected at 19:55:06 hrs
  WARNING: System disconnected because of Link 4
  
  WARNING: Negative pressures at 19:56:05 hrs.
  WARNING: Node J5 disconnected at 19:56:05 hrs
  WARNING: System disconnected because of Link 4
  
  WARNING: Negative pressures at 19:57:04 hrs.
  WARNING: Node J5 disconnected at 19:57:04 hrs
  WARNING: System disconnected because of Link 4
  
  WARNING: Negative pressures at 19:58:03 hrs.
  WARNING: Node J5 disconnected at 19:58:03 hrs
  WARNING: System disconnected because of Link 4
  
  WARNING: Negative pressures at 19:59:02 hrs.
  WARNING: Node J5 disconnected at 19:59:02 hrs
  WARNING: System disconnected because of Link 4
  
  WARNING: Negative pressures at 20:00:00 hrs.
  WARNING: Node J5 disconnected at 20:00:00 hrs
  WARNING: System disconnected because of Link 4
  
  WARNING: Negative pressures at 20:00:59 hrs.
  WARNING: Node J5 disconnected at 20:00:59 hrs
  WARNING: System disconnected because of Link 4
  
  WARNING: Negative pressures at 20:01:58 hrs.
  WARNING: Node J5 disconnected at 20:01:58 hrs
  WARNING: System disconnected because of Link 4
  
  WARNING: Negative pressures at 20:02:57 hrs.
  WARNING: Node J5 disconnected at 20:02:57 hrs
  WARNING: System disconnected because of Link 4
  
  WARNING: Negative pressures at 20:03:56 hrs.
  WARNING: Node J5 disconnected at 20:03:56 hrs
  WARNING: System disconnected because of Link 4
  
  WARNING: Negative pressures at 20:04:55 hrs.
  WARNING: Node J5 disconnected at 20:04:55 hrs
  WARNING: System disconnected because of Link 4
  
  WARNING: Negative pressures at 20:05:54 hrs.
  WARNING: Node J5 disconnected at 20:05:54 hrs
  WARNING: System disconnected because of Link 4
  
  WARNING: Negative pressures at 20:06:53 hrs.
  WARNING: Node J5 disconnected at 20:06:53 hrs
  WARNING: System disconnected because of Link 4
  
  WARNING: Negative pressures at 20:07:52 hrs.
  WARNING: Node J5 disconnected at 20:07:52 hrs
  WARNING: System disconnected because of Link 4
  
  WARNING: Negative pressures at 20:08:51 hrs.
  WARNING: Node J5 disconnected at 20:08:51 hrs
  WARNING: System disconnected because of Link 4
  
  WARNING: Negative pressures at 20:09:50 hrs.
  WARNING: Node J5 disconnected at 20:09:50 hrs
  WARNING: System disconnected because of Link 4
  
  WARNING: Negative pressures at 20:10:49 hrs.
  WARNING: Node J5 disconnected at 20:10:49 hrs
  WARNING: System disconnected because of Link 4
  
  WARNING: Negative pressures at 20:11:48 hrs.
  WARNING: Node J5 disconnected at 20:11:48 hrs
  WARNING: System disconnected because of Link 4
  
  WARNING: Negative pressures at 20:12:47 hrs.
  WARNING: Node J5 disconnected at 20:12:47 hrs
  WARNING: System disconnected because of Link 4
  
  WARNING: Negative pressures at 20:13:46 hrs.
  WARNING: Node J5 disconnected at 20:13:46 hrs
  WARNING: System disconnected because of Link 4
  
  WARNING: Negative pressures at 20:14:45 hrs.
  WARNING: Node J5 disconnected at 20:14:45 hrs
  WARNING: System disconnected because of Link 4
  
  WARNING: Negative pressures at 20:15:44 hrs.
  WARNING: Node J5 disconnected at 20:15:44 hrs
  WARNING: System disconnected because of Link 4
  
  WARNING: Negative pressures at 20:16:43 hrs.
  WARNING: Node J5 disconnected at 20:16:43 hrs
  WARNING: System disconnected because of Link 4
  
  WARNING: Negative pressures at 20:17:42 hrs.
  WARNING: Node J5 disconnected at 20:17:42 hrs
  WARNING: System disconnected because of Link 4
  
  WARNING: Negative pressures at 20:18:41 hrs.
  WARNING: Node J5 disconnected at 20:18:41 hrs
  WARNING: System disconnected because of Link 4
  
  WARNING: Negative pressures at 20:19:40 hrs.
  WARNING: Node J5 disconnected at 20:19:40 hrs
  WARNING: System disconnected because of Link 4
  
  WARNING: Negative pressures at 20:20:39 hrs.
  WARNING: Node J5 disconnected at 20:20:39 hrs
  WARNING: System disconnected because of Link 4
  
  WARNING: Negative pressures at 20:21:38 hrs.
  WARNING: Node J5 disconnected at 20:21:38 hrs
  WARNING: System disconnected because of Link 4
  
  WARNING: Negative pressures at 20:22:37 hrs.
  WARNING: Node J5 disconnected at 20:22:37 hrs
  WARNING: System disconnected because of Link 4
  
  WARNING: Negative pressures at 20:23:36 hrs.
  WARNING: Node J5 disconnected at 20:23:36 hrs
  WARNING: System disconnected because of Link 4
  
  WARNING: Negative pressures at 20:24:35 hrs.
  WARNING: Node J5 disconnected at 20:24:35 hrs
  WARNING: System disconnected because of Link 4
  
  WARNING: Negative pressures at 20:25:34 hrs.
  WARNING: Node J5 disconnected at 20:25:34 hrs
  WARNING: System disconnected because of Link 4
  
  WARNING: Negative pressures at 20:26:33 hrs.
  WARNING: Node J5 disconnected at 20:26:33 hrs
  WARNING: System disconnected because of Link 4
  
  WARNING: Negative pressures at 20:27:32 hrs.
  WARNING: Node J5 disconnected at 20:27:32 hrs
  WARNING: System disconnected because of Link 4
  
  WARNING: Negative pressures at 20:28:31 hrs.
  WARNING: Node J5 disconnected at 20:28:31 hrs
  WARNING: System disconnected because of Link 4
  
  WARNING: Negative pressures at 20:29:30 hrs.
  WARNING: Node J5 disconnected at 20:29:30 hrs
  WARNING: System disconnected because of Link 4
  
  WARNING: Negative pressures at 20:30:29 hrs.
  WARNING: Node J5 disconnected at 20:30:29 hrs
  WARNING: System disconnected because of Link 4
  
  WARNING: Negative pressures at 20:31:28 hrs.
  WARNING: Node J5 disconnected at 20:31:28 hrs
  WARNING: System disconnected because of Link 4
  
  WARNING: Negative pressures at 20:32:27 hrs.
  WARNING: Node J5 disconnected at 20:32:27 hrs
  WARNING: System disconnected because of Link 4
  
  WARNING: Negative pressures at 20:33:26 hrs.
  WARNING: Node J5 disconnected at 20:33:26 hrs
  WARNING: System disconnected because of Link 4
  
  WARNING: Negative pressures at 20:34:25 hrs.
  WARNING: Node J5 disconnected at 20:34:25 hrs
  WARNING: System disconnected because of Link 4
  
  WARNING: Negative pressures at 20:35:24 hrs.
  WARNING: Node J5 disconnected at 20:35:24 hrs
  WARNING: System disconnected because of Link 4
  
  WARNING: Negative pressures at 20:36:23 hrs.
  WARNING: Node J5 disconnected at 20:36:23 hrs
  WARNING: System disconnected because of Link 4
  
  WARNING: Negative pressures at 20:37:22 hrs.
  WARNING: Node J5 disconnected at 20:37:22 hrs
  WARNING: System disconnected because of Link 4
  
  WARNING: Negative pressures at 20:38:21 hrs.
  WARNING: Node J5 disconnected at 20:38:21 hrs
  WARNING: System disconnected because of Link 4
  
  WARNING: Negative pressures at 20:39:20 hrs.
  WARNING: Node J5 disconnected at 20:39:20 hrs
  WARNING: System disconnected because of Link 4
  
  WARNING: Negative pressures at 20:40:19 hrs.
  WARNING: Node J5 disconnected at 20:40:19 hrs
  WARNING: System disconnected because of Link 4
  
  WARNING: Negative pressures at 20:41:18 hrs.
  WARNING: Node J5 disconnected at 20:41:18 hrs
  WARNING: System disconnected because of Link 4
  
  WARNING: Negative pressures at 20:42:17 hrs.
  WARNING: Node J5 disconnected at 20:42:17 hrs
  WARNING: System disconnected because of Link 4
  
  WARNING: Negative pressures at 20:43:16 hrs.
  WARNING: Node J5 disconnected at 20:43:16 hrs
  WARNING: System disconnected because of Link 4
  
  WARNING: Negative pressures at 20:44:15 hrs.
  WARNING: Node J5 disconnected at 20:44:15 hrs
  WARNING: System disconnected because of Link 4
  
  WARNING: Negative pressures at 20:45:14 hrs.
  WARNING: Node J5 disconnected at 20:45:14 hrs
  WARNING: System disconnected because of Link 4
  
  WARNING: Negative pressures at 20:46:13 hrs.
  WARNING: Node J5 disconnected at 20:46:13 hrs
  WARNING: System disconnected because of Link 4
  
  WARNING: Negative pressures at 20:47:12 hrs.
  WARNING: Node J5 disconnected at 20:47:12 hrs
  WARNING: System disconnected because of Link 4
  
  WARNING: Negative pressures at 20:48:11 hrs.
  WARNING: Node J5 disconnected at 20:48:11 hrs
  WARNING: System disconnected because of Link 4
  
  WARNING: Negative pressures at 20:49:10 hrs.
  WARNING: Node J5 disconnected at 20:49:10 hrs
  WARNING: System disconnected because of Link 4
  
  WARNING: Negative pressures at 20:50:09 hrs.
  WARNING: Node J5 disconnected at 20:50:09 hrs
  WARNING: System disconnected because of Link 4
  
  WARNING: Negative pressures at 20:51:08 hrs.
  WARNING: Node J5 disconnected at 20:51:08 hrs
  WARNING: System disconnected because of Link 4
  
  WARNING: Negative pressures at 20:52:07 hrs.
  WARNING: Node J5 disconnected at 20:52:07 hrs
  WARNING: System disconnected because of Link 4
  
  WARNING: Negative pressures at 20:53:06 hrs.
  WARNING: Node J5 disconnected at 20:53:06 hrs
  WARNING: System disconnected because of Link 4
  
  WARNING: Negative pressures at 20:54:05 hrs.
  WARNING: Node J5 disconnected at 20:54:05 hrs
  WARNING: System disconnected because of Link 4
  
  WARNING: Negative pressures at 20:55:04 hrs.
  WARNING: Node J5 disconnected at 20:55:04 hrs
  WARNING: System disconnected because of Link 4
  
  WARNING: Negative pressures at 20:56:03 hrs.
  WARNING: Node J5 disconnected at 20:56:03 hrs
  WARNING: System disconnected because of Link 4
  
  WARNING: Negative pressures at 20:57:02 hrs.
  WARNING: Node J5 disconnected at 20:57:02 hrs
  WARNING: System disconnected because of Link 4
  
  WARNING: Negative pressures at 20:58:01 hrs.
  WARNING: Node J5 disconnected at 20:58:01 hrs
  WARNING: System disconnected because of Link 4
  
  WARNING: Negative pressures at 20:59:00 hrs.
  WARNING: Node J5 disconnected at 20:59:00 hrs
  WARNING: System disconnected because of Link 4
  
  WARNING: Negative pressures at 20:59:59 hrs.
  WARNING: Node J5 disconnected at 20:59:59 hrs
  WARNING: System disconnected because of Link 4
  
  WARNING: Negative pressures at 21:00:58 hrs.
  WARNING: Node J5 disconnected at 21:00:58 hrs
  WARNING: System disconnected because of Link 4
  
  WARNING: Negative pressures at 21:01:57 hrs.
  WARNING: Node J5 disconnected at 21:01:57 hrs
  WARNING: System disconnected because of Link 4
  
  WARNING: Negative pressures at 21:02:56 hrs.
  WARNING: Node J5 disconnected at 21:02:56 hrs
  WARNING: System disconnected because of Link 4
  
  WARNING: Negative pressures at 21:03:55 hrs.
  WARNING: Node J5 disconnected at 21:03:55 hrs
  WARNING: System disconnected because of Link 4
  
  WARNING: Negative pressures at 21:04:54 hrs.
  WARNING: Node J5 disconnected at 21:04:54 hrs
  WARNING: System disconnected because of Link 4
  
  WARNING: Negative pressures at 21:05:53 hrs.
  WARNING: Node J5 disconnected at 21:05:53 hrs
  WARNING: System disconnected because of Link 4
  
  WARNING: Negative pressures at 21:06:52 hrs.
  WARNING: Node J5 disconnected at 21:06:52 hrs
  WARNING: System disconnected because of Link 4
  
  WARNING: Negative pressures at 21:07:51 hrs.
  WARNING: Node J5 disconnected at 21:07:51 hrs
  WARNING: System disconnected because of Link 4
  
  WARNING: Negative pressures at 21:08:50 hrs.
  WARNING: Node J5 disconnected at 21:08:50 hrs
  WARNING: System disconnected because of Link 4
  
  WARNING: Negative pressures at 21:09:49 hrs.
  WARNING: Node J5 disconnected at 21:09:49 hrs
  WARNING: System disconnected because of Link 4
  
  WARNING: Negative pressures at 21:10:48 hrs.
  WARNING: Node J5 disconnected at 21:10:48 hrs
  WARNING: System disconnected because of Link 4
  
  WARNING: Negative pressures at 21:11:47 hrs.
  WARNING: Node J5 disconnected at 21:11:47 hrs
  WARNING: System disconnected because of Link 4
  
  WARNING: Negative pressures at 21:12:46 hrs.
  WARNING: Node J5 disconnected at 21:12:46 hrs
  WARNING: System disconnected because of Link 4
  
  WARNING: Negative pressures at 21:13:45 hrs.
  WARNING: Node J5 disconnected at 21:13:45 hrs
  WARNING: System disconnected because of Link 4
  
  WARNING: Negative pressures at 21:14:44 hrs.
  WARNING: Node J5 disconnected at 21:14:44 hrs
  WARNING: System disconnected because of Link 4
  
  WARNING: Negative pressures at 21:15:43 hrs.
  WARNING: Node J5 disconnected at 21:15:43 hrs
  WARNING: System disconnected because of Link 4
  
  WARNING: Negative pressures at 21:16:42 hrs.
  WARNING: Node J5 disconnected at 21:16:42 hrs
  WARNING: System disconnected because of Link 4
  
  WARNING: Negative pressures at 21:17:41 hrs.
  WARNING: Node J5 disconnected at 21:17:41 hrs
  WARNING: System disconnected because of Link 4
  
  WARNING: Negative pressures at 21:18:40 hrs.
  WARNING: Node J5 disconnected at 21:18:40 hrs
  WARNING: System disconnected because of Link 4
  
  WARNING: Negative pressures at 21:19:39 hrs.
  WARNING: Node J5 disconnected at 21:19:39 hrs
  WARNING: System disconnected because of Link 4
  
  WARNING: Negative pressures at 21:20:38 hrs.
  WARNING: Node J5 disconnected at 21:20:38 hrs
  WARNING: System disconnected because of Link 4
  
  WARNING: Negative pressures at 21:21:37 hrs.
  WARNING: Node J5 disconnected at 21:21:37 hrs
  WARNING: System disconnected because of Link 4
  
  WARNING: Negative pressures at 21:22:36 hrs.
  WARNING: Node J5 disconnected at 21:22:36 hrs
  WARNING: System disconnected because of Link 4
  
  WARNING: Negative pressures at 21:23:35 hrs.
  WARNING: Node J5 disconnected at 21:23:35 hrs
  WARNING: System disconnected because of Link 4
  
  WARNING: Negative pressures at 21:24:34 hrs.
  WARNING: Node J5 disconnected at 21:24:34 hrs
  WARNING: System disconnected because of Link 4
  
  WARNING: Negative pressures at 21:25:33 hrs.
  WARNING: Node J5 disconnected at 21:25:33 hrs
  WARNING: System disconnected because of Link 4
  
  WARNING: Negative pressures at 21:26:32 hrs.
  WARNING: Node J5 disconnected at 21:26:32 hrs
  WARNING: System disconnected because of Link 4
  
  WARNING: Negative pressures at 21:27:31 hrs.
  WARNING: Node J5 disconnected at 21:27:31 hrs
  WARNING: System disconnected because of Link 4
  
  WARNING: Negative pressures at 21:28:30 hrs.
  WARNING: Node J5 disconnected at 21:28:30 hrs
  WARNING: System disconnected because of Link 4
  
  WARNING: Negative pressures at 21:29:29 hrs.
  WARNING: Node J5 disconnected at 21:29:29 hrs
  WARNING: System disconnected because of Link 4
  
  WARNING: Negative pressures at 21:30:28 hrs.
  WARNING: Node J5 disconnected at 21:30:28 hrs
  WARNING: System disconnected because of Link 4
  
  WARNING: Negative pressures at 21:31:27 hrs.
  WARNING: Node J5 disconnected at 21:31:27 hrs
  WARNING: System disconnected because of Link 4
  
  WARNING: Negative pressures at 21:32:26 hrs.
  WARNING: Node J5 disconnected at 21:32:26 hrs
  WARNING: System disconnected because of Link 4
  
  WARNING: Negative pressures at 21:33:25 hrs.
  WARNING: Node J5 disconnected at 21:33:25 hrs
  WARNING: System disconnected because of Link 4
  
  WARNING: Negative pressures at 21:34:24 hrs.
  WARNING: Node J5 disconnected at 21:34:24 hrs
  WARNING: System disconnected because of Link 4
  
  WARNING: Negative pressures at 21:35:23 hrs.
  WARNING: Node J5 disconnected at 21:35:23 hrs
  WARNING: System disconnected because of Link 4
  
  WARNING: Negative pressures at 21:36:22 hrs.
  WARNING: Node J5 disconnected at 21:36:22 hrs
  WARNING: System disconnected because of Link 4
  
  WARNING: Negative pressures at 21:37:21 hrs.
  WARNING: Node J5 disconnected at 21:37:21 hrs
  WARNING: System disconnected because of Link 4
  
  WARNING: Negative pressures at 21:38:20 hrs.
  WARNING: Node J5 disconnected at 21:38:20 hrs
  WARNING: System disconnected because of Link 4
  
  WARNING: Negative pressures at 21:39:19 hrs.
  WARNING: Node J5 disconnected at 21:39:19 hrs
  WARNING: System disconnected because of Link 4
  
  WARNING: Negative pressures at 21:40:18 hrs.
  WARNING: Node J5 disconnected at 21:40:18 hrs
  WARNING: System disconnected because of Link 4
  
  WARNING: Negative pressures at 21:41:17 hrs.
  WARNING: Node J5 disconnected at 21:41:17 hrs
  WARNING: System disconnected because of Link 4
  
  WARNING: Negative pressures at 21:42:16 hrs.
  WARNING: Node J5 disconnected at 21:42:16 hrs
  WARNING: System disconnected because of Link 4
  
  WARNING: Negative pressures at 21:43:15 hrs.
  WARNING: Node J5 disconnected at 21:43:15 hrs
  WARNING: System disconnected because of Link 4
  
  WARNING: Negative pressures at 21:44:14 hrs.
  WARNING: Node J5 disconnected at 21:44:14 hrs
  WARNING: System disconnected because of Link 4
  
  WARNING: Negative pressures at 21:45:13 hrs.
  WARNING: Node J5 disconnected at 21:45:13 hrs
  WARNING: System disconnected because of Link 4
  
  WARNING: Negative pressures at 21:46:12 hrs.
  WARNING: Node J5 disconnected at 21:46:12 hrs
  WARNING: System disconnected because of Link 4
  
  WARNING: Negative pressures at 21:47:11 hrs.
  WARNING: Node J5 disconnected at 21:47:11 hrs
  WARNING: System disconnected because of Link 4
  
  WARNING: Negative pressures at 21:48:10 hrs.
  WARNING: Node J5 disconnected at 21:48:10 hrs
  WARNING: System disconnected because of Link 4
  
  WARNING: Negative pressures at 21:49:09 hrs.
  WARNING: Node J5 disconnected at 21:49:09 hrs
  WARNING: System disconnected because of Link 4
  
  WARNING: Negative pressures at 21:50:08 hrs.
  WARNING: Node J5 disconnected at 21:50:08 hrs
  WARNING: System disconnected because of Link 4
  
  WARNING: Negative pressures at 21:51:07 hrs.
  WARNING: Node J5 disconnected at 21:51:07 hrs
  WARNING: System disconnected because of Link 4
  
  WARNING: Negative pressures at 21:52:06 hrs.
  WARNING: Node J5 disconnected at 21:52:06 hrs
  WARNING: System disconnected because of Link 4
  
  WARNING: Negative pressures at 21:53:05 hrs.
  WARNING: Node J5 disconnected at 21:53:05 hrs
  WARNING: System disconnected because of Link 4
  
  WARNING: Negative pressures at 21:54:04 hrs.
  WARNING: Node J5 disconnected at 21:54:04 hrs
  WARNING: